// Jest Snapshot v1, https://goo.gl/fbAQLP

exports[`<Main/> should render the heading 1`] = `
<main
  class="sc-bdfBwQ lipfOp"
>
  <img
    alt="React Avançado"
    class="sc-gsTCUz iCHfWn"
    src="/img/logo.svg"
  />
  <h1
    class="sc-dlfnbm pUNJm"
  >
    React Avançado
  </h1>
  <h2
    class="sc-hKgILt bMDNnv"
  >
    TypeSCript, ReactJS, NextJS e Styled Components
  </h2>
  <img
    alt="Desenvolvedor com código"
    class="sc-eCssSg gUhrvH"
    src="/img/hero-illustration.svg"
  />
</main>
`;
